<?xml version="1.0" encoding="utf-8"?>
<!-- Generator: Adobe Illustrator 16.0.0, SVG Export Plug-In . SVG Version: 6.00 Build 0)  -->
<!DOCTYPE svg PUBLIC "-//W3C//DTD SVG 1.1//EN" "http://www.w3.org/Graphics/SVG/1.1/DTD/svg11.dtd">
<svg version="1.1" id="Layer_1" xmlns="http://www.w3.org/2000/svg" xmlns:xlink="http://www.w3.org/1999/xlink" x="0px" y="0px"
	 width="36px" height="36px" viewBox="0 0 36 36" enable-background="new 0 0 36 36" xml:space="preserve">
<path fill="#FFFFFF" d="M29.954,8.464c0,0.773-0.596,1.4-1.328,1.4H7.707c-0.734,0-1.33-0.627-1.33-1.4l0,0
	c0-0.774,0.596-1.4,1.33-1.4h20.919C29.358,7.064,29.954,7.69,29.954,8.464L29.954,8.464z"/>
<path fill="#FFFFFF" d="M23.654,14.58c0,0.774-0.598,1.4-1.329,1.4H7.872c-0.735,0-1.33-0.626-1.33-1.4l0,0
	c0-0.773,0.594-1.399,1.33-1.399h14.453C23.057,13.18,23.654,13.807,23.654,14.58L23.654,14.58z"/>
<g id="Your_Icon">
	<path fill="#FFFFFF" d="M25.326,35.132L25.326,35.132c-0.435,0-0.852-0.155-1.173-0.44c-0.945-0.842-7.663-6.996-9.246-8.447H3.79
		c-2.869,0-3.79-0.922-3.79-3.8V3.806C0,0.996,0.992,0,3.79,0h28.441c2.763,0,3.79,1.032,3.79,3.806v18.666
		c0,2.82-0.957,3.772-3.79,3.772h-5.101v6.893c0.021,0.551-0.169,1.084-0.532,1.459C26.264,34.942,25.811,35.132,25.326,35.132z
		 M3.79,2.247c-1.543,0-1.543,0-1.543,1.559v18.639c0,1.554,0,1.554,1.543,1.554h11.991l0.322,0.295
		c0.074,0.067,6.428,5.893,8.783,8.03v-8.325h7.346c1.544,0,1.544,0,1.544-1.526V3.806c0-1.53-0.03-1.559-1.544-1.559H3.79z"/>
</g>
</svg>
